<svg width="43" height="44" viewBox="0 0 43 44" fill="none" xmlns="http://www.w3.org/2000/svg">
<path d="M33.25 6.82202H10.75C8.67893 6.82202 7 8.52821 7 10.6329V33.4982C7 35.6029 8.67893 37.3091 10.75 37.3091H33.25C35.3211 37.3091 37 35.6029 37 33.4982V10.6329C37 8.52821 35.3211 6.82202 33.25 6.82202Z" stroke="#4E05A9" stroke-width="2" stroke-linecap="round" stroke-linejoin="round"/>
<path d="M27 16.2834H16V27.8476H27V16.2834Z" stroke="#4E05A9" stroke-width="2" stroke-linecap="round" stroke-linejoin="round"/>
<path d="M16 1.56543V6.82187" stroke="#4E05A9" stroke-width="2" stroke-linecap="round" stroke-linejoin="round"/>
<path d="M27 1.56543V6.82187" stroke="#4E05A9" stroke-width="2" stroke-linecap="round" stroke-linejoin="round"/>
<path d="M16 37.3091V42.5655" stroke="#4E05A9" stroke-width="2" stroke-linecap="round" stroke-linejoin="round"/>
<path d="M27 37.3091V42.5655" stroke="#4E05A9" stroke-width="2" stroke-linecap="round" stroke-linejoin="round"/>
<path d="M37 16.2834H42" stroke="#4E05A9" stroke-width="2" stroke-linecap="round" stroke-linejoin="round"/>
<path d="M37 25.7451H42" stroke="#4E05A9" stroke-width="2" stroke-linecap="round" stroke-linejoin="round"/>
<path d="M1 16.2834H6" stroke="#4E05A9" stroke-width="2" stroke-linecap="round" stroke-linejoin="round"/>
<path d="M1 25.7451H6" stroke="#4E05A9" stroke-width="2" stroke-linecap="round" stroke-linejoin="round"/>
</svg>
